parity_gen/output.txt
TIME	X	Y
10	0000	00001
20	0001	00010
30	0010	00100
40	0011	00111
50	0100	01000
60	0101	01011
70	0110	01101
80	0111	01110
90	1000	10000
100	1001	10011
110	1010	10101
120	1011	10110
130	1100	11001
140	1101	11010
150	1110	11100
160	1111	11111
tb_parity_gen.v:17: $finish called at 160 (1s)
